Day-11-12
…
What function can be used to impute missing values with the mean?

The step_impute_mean() fuction can be used to impute missing values with the mean.

prep and bake the data to generate a processed dataset.

prep_recipe <- prep(recipe_obj, training = airquality)

normalized_data <- bake(prep_recipe, new_data = NULL) |>
  drop_na()

normalized_data

# A tibble: 116 × 5
     Solar.R   Temp    Wind Ozone season_Summer
       <dbl>  <dbl>   <dbl> <int>         <dbl>
 1  0.0462   -1.15  -0.726     41         0.812
 2 -0.772    -0.621 -0.556     36         0.812
 3 -0.420    -0.410  0.750     12         0.812
 4  1.44     -1.68   0.438     18         0.812
 5  0.000743 -1.26   1.40      28         0.812
 6  1.29     -1.36  -0.385     23         0.812
 7 -0.988    -1.99   1.09      19         0.812
 8 -1.90     -1.78   2.88       8         0.812
 9  0.000743 -0.410 -0.868      7         0.812
10  0.797    -0.938 -0.0731    16         0.812
# ℹ 106 more rows
…
Coefficients:
  (Intercept)        Solar.R           Temp           Wind  season_Summer  
       42.213          4.857         16.376        -10.952          1.959  

glance(model)

# A tibble: 1 × 12
  r.squared adj.r.squared sigma statistic  p.value    df logLik   AIC   BIC
      <dbl>         <dbl> <dbl>     <dbl>    <dbl> <dbl>  <dbl> <dbl> <dbl>
1     0.596         0.582  21.3      41.0 4.58e-21     4  -517. 1046. 1063.
# ℹ 3 more variables: deviance <dbl>, df.residual <int>, nobs <int>

(pred <- augment(model, normalized_data))

# A tibble: 116 × 11
     Solar.R   Temp    Wind Ozone season_Summer .fitted   .resid   .hat .sigma
       <dbl>  <dbl>   <dbl> <int>         <dbl>   <dbl>    <dbl>  <dbl>  <dbl>
 1  0.0462   -1.15  -0.726     41         0.812   33.2    7.85   0.0443   21.4
 2 -0.772    -0.621 -0.556     36         0.812   36.0    0.0397 0.0316   21.4
 3 -0.420    -0.410  0.750     12         0.812   26.8  -14.8    0.0227   21.4
 4  1.44     -1.68   0.438     18         0.812   18.5   -0.547  0.0704   21.4
 5  0.000743 -1.26   1.40      28         0.812    7.89  20.1    0.0334   21.3
 6  1.29     -1.36  -0.385     23         0.812   32.0   -8.98   0.0657   21.4
 7 -0.988    -1.99   1.09      19         0.812   -5.61  24.6    0.0476   21.3
 8 -1.90     -1.78   2.88       8         0.812  -26.2   34.2    0.107    21.1
 9  0.000743 -0.410 -0.868      7         0.812   46.6  -39.6    0.0296   21.1
10  0.797    -0.938 -0.0731    16         0.812   33.1  -17.1    0.0329   21.4
# ℹ 106 more rows
# ℹ 2 more variables: .cooksd <dbl>, .std.resid <dbl>
Interpret the model summary output (coefficients, R-squared, p-values) in plain language

In the model summary output I received an r-squared value of 0.596, which demonstrates that 59.6% of the variability for Ozone can be attributed to the model. I also received a p-value of 4.58e-21 which indicated that the null hypothesis can be rejected with high confidence. The coefficients for the model include Intercept = 42.213, Solar.R = 4.857, Temp = 16.376, Wind = -10.952, and Season = 1.959.

Part 5: Model Diagnostics

Use broom::augment to supplement the normalized data.frame with the fitted values and residuals.

library(broom)

augmented_data <- augment(model, new_data = normalized_data)

augmented_data

# A tibble: 116 × 11
   Ozone   Solar.R   Temp    Wind season_Summer .fitted   .resid   .hat .sigma
   <int>     <dbl>  <dbl>   <dbl>         <dbl>   <dbl>    <dbl>  <dbl>  <dbl>
 1    41  0.0462   -1.15  -0.726          0.812   33.2    7.85   0.0443   21.4
 2    36 -0.772    -0.621 -0.556          0.812   36.0    0.0397 0.0316   21.4
 3    12 -0.420    -0.410  0.750          0.812   26.8  -14.8    0.0227   21.4
 4    18  1.44     -1.68   0.438          0.812   18.5   -0.547  0.0704   21.4
 5    28  0.000743 -1.26   1.40           0.812    7.89  20.1    0.0334   21.3
 6    23  1.29     -1.36  -0.385          0.812   32.0   -8.98   0.0657   21.4
 7    19 -0.988    -1.99   1.09           0.812   -5.61  24.6    0.0476   21.3
 8     8 -1.90     -1.78   2.88           0.812  -26.2   34.2    0.107    21.1
 9     7  0.000743 -0.410 -0.868          0.812   46.6  -39.6    0.0296   21.1
10    16  0.797    -0.938 -0.0731         0.812   33.1  -17.1    0.0329   21.4
# ℹ 106 more rows
# ℹ 2 more variables: .cooksd <dbl>, .std.resid <dbl>
…
